{
  "kind": "collectionType",
  "collectionName": "page_cartos",
  "info": {
    "singularName": "page-carto",
    "pluralName": "page-cartos",
    "displayName": "PageCarto",
    "description": ""
  },
  "options": {
    "draftAndPublish": true
  },
  "pluginOptions": {},
  "attributes": {
    "name": {
      "type": "string",
      "required": true
    },
    "owner": {
      "type": "relation",
      "relation": "oneToOne",
      "target": "plugin::users-permissions.user"
    },
    "map": {
      "type": "relation",
      "relation": "manyToOne",
      "target": "api::geo-map.geo-map",
      "inversedBy": "page_cartos"
    },
    "tags": {
      "type": "relation",
      "relation": "manyToMany",
      "target": "api::tag.tag",
      "inversedBy": "page_cartos"
    },
    "cover": {
      "type": "media",
      "multiple": false,
      "required": false,
      "allowedTypes": [
        "images"
      ]
    },
    "data_fragments": {
      "type": "relation",
      "relation": "oneToMany",
      "target": "api::data-fragment.data-fragment",
      "mappedBy": "page_carto"
    },
    "indicators": {
      "type": "relation",
      "relation": "oneToMany",
      "target": "api::indicator.indicator",
      "mappedBy": "page_carto"
    },
    "charts": {
      "type": "relation",
      "relation": "oneToMany",
      "target": "api::chart.chart",
      "mappedBy": "page_carto"
    },
    "snapshots": {
      "type": "relation",
      "relation": "oneToMany",
      "target": "api::snapshot.snapshot",
      "mappedBy": "page_carto"
    },
    "html": {
      "type": "richtext"
    },
    "configs": {
      "type": "json"
    }
  }
}
